<?xml version="1.0" standalone="no"?>
<!DOCTYPE svg PUBLIC "-//W3C//DTD SVG 1.1//EN" "http://www.w3.org/Graphics/SVG/1.1/DTD/svg11.dtd">
<svg xmlns="http://www.w3.org/2000/svg">
<metadata>Copyright (C) 2019 by original authors @ fontello.com</metadata>
<defs>
<font id="fontello" horiz-adv-x="1000" >
<font-face font-family="fontello" font-weight="400" font-stretch="normal" units-per-em="1000" ascent="850" descent="-150" />
<missing-glyph horiz-adv-x="1000" />
<glyph glyph-name="picture" unicode="&#xe800;" d="M357 529q0-45-31-76t-76-32-76 32-31 76 31 76 76 31 76-31 31-76z m572-215v-250h-786v107l178 179 90-89 285 285z m53 393h-893q-7 0-12-5t-6-13v-678q0-7 6-13t12-5h893q7 0 13 5t5 13v678q0 8-5 13t-13 5z m89-18v-678q0-37-26-63t-63-27h-893q-36 0-63 27t-26 63v678q0 37 26 63t63 27h893q37 0 63-27t26-63z" horiz-adv-x="1071.4" />

<glyph glyph-name="user" unicode="&#xe801;" d="M714 69q0-60-35-104t-84-44h-476q-49 0-84 44t-35 104q0 48 5 90t17 85 33 73 52 50 76 19q73-72 174-72t175 72q42 0 75-19t52-50 33-73 18-85 4-90z m-143 495q0-88-62-151t-152-63-151 63-63 151 63 152 151 63 152-63 62-152z" horiz-adv-x="714.3" />

<glyph glyph-name="eye" unicode="&#xe802;" d="M929 314q-85 132-213 197 34-58 34-125 0-103-73-177t-177-73-177 73-73 177q0 67 34 125-128-65-213-197 75-114 187-182t242-68 243 68 186 182z m-402 215q0 11-8 19t-19 7q-70 0-120-50t-50-119q0-11 8-19t19-8 19 8 8 19q0 48 34 82t82 34q11 0 19 8t8 19z m473-215q0-19-11-38-78-129-210-206t-279-77-279 77-210 206q-11 19-11 38t11 39q78 128 210 205t279 78 279-78 210-205q11-20 11-39z" horiz-adv-x="1000" />

<glyph glyph-name="eye-off" unicode="&#xe803;" d="M310 105l43 79q-48 35-76 88t-27 114q0 67 34 125-128-65-213-197 94-144 239-209z m217 424q0 11-8 19t-19 7q-70 0-120-50t-50-119q0-11 8-19t19-8 19 8 8 19q0 48 34 82t82 34q11 0 19 8t8 19z m202 106q0-4 0-5-59-105-176-316t-176-316l-28-50q-5-9-15-9-7 0-75 39-9 6-9 16 0 7 25 49-80 36-147 96t-117 137q-11 17-11 38t11 39q86 131 212 207t277 76q50 0 100-10l31 54q5 9 15 9 3 0 10-3t18-9 18-10 18-10 10-7q9-5 9-15z m21-249q0-78-44-142t-117-91l157 280q4-25 4-47z m250-72q0-19-11-38-22-36-61-81-84-96-194-149t-234-53l41 74q119 10 219 76t169 171q-65 100-158 164l35 63q53-36 102-85t81-103q11-19 11-39z" horiz-adv-x="1000" />

<glyph glyph-name="pencil" unicode="&#xe804;" d="M203-7l50 51-131 131-51-51v-60h72v-71h60z m291 518q0 12-12 12-5 0-9-4l-303-302q-4-4-4-10 0-12 13-12 5 0 9 4l303 302q3 4 3 10z m-30 107l232-232-464-465h-232v233z m381-54q0-29-20-50l-93-93-232 233 93 92q20 21 50 21 29 0 51-21l131-131q20-22 20-51z" horiz-adv-x="857.1" />

<glyph glyph-name="attention" unicode="&#xe805;" d="M571 83v106q0 8-5 13t-12 5h-108q-7 0-12-5t-5-13v-106q0-8 5-13t12-6h108q7 0 12 6t5 13z m-1 208l10 257q0 6-5 10-7 6-14 6h-122q-6 0-14-6-5-4-5-12l9-255q0-5 6-9t13-3h103q8 0 14 3t5 9z m-7 522l428-786q20-35-1-70-9-17-26-26t-35-10h-858q-18 0-35 10t-26 26q-21 35-1 70l429 786q9 17 26 27t36 10 36-10 27-27z" horiz-adv-x="1000" />

<glyph glyph-name="location" unicode="&#xe806;" d="M429 493q0 59-42 101t-101 42-101-42-42-101 42-101 101-42 101 42 42 101z m142 0q0-61-18-100l-203-432q-9-18-27-29t-37-11-38 11-26 29l-204 432q-18 39-18 100 0 118 84 202t202 84 202-84 83-202z" horiz-adv-x="571.4" />

<glyph glyph-name="edit" unicode="&#xe807;" d="M496 189l64 65-85 85-64-65v-31h53v-54h32z m245 402q-9 9-18 0l-196-196q-9-9 0-18t18 0l196 196q9 9 0 18z m45-331v-106q0-67-47-114t-114-47h-464q-67 0-114 47t-47 114v464q0 66 47 113t114 48h464q35 0 65-14 9-4 10-13 2-10-5-16l-27-28q-8-8-18-4-13 3-25 3h-464q-37 0-63-26t-27-63v-464q0-37 27-63t63-27h464q37 0 63 27t26 63v70q0 7 5 12l36 36q8 8 20 4t11-16z m-54 411l161-160-375-375h-161v160z m248-73l-51-52-161 161 51 52q16 15 38 15t38-15l85-85q16-16 16-38t-16-38z" horiz-adv-x="1000" />

<glyph glyph-name="print" unicode="&#xe808;" d="M214-7h500v143h-500v-143z m0 357h500v214h-89q-22 0-38 16t-16 38v89h-357v-357z m643-36q0 15-10 25t-26 11-25-11-10-25 10-25 25-10 26 10 10 25z m72 0v-232q0-7-6-12t-12-6h-125v-89q0-22-16-38t-38-16h-536q-22 0-37 16t-16 38v89h-125q-7 0-13 6t-5 12v232q0 44 32 76t75 31h36v304q0 22 16 38t37 16h375q23 0 50-12t42-26l85-85q15-16 27-43t11-49v-143h35q45 0 76-31t32-76z" horiz-adv-x="928.6" />

<glyph glyph-name="basket" unicode="&#xe809;" d="M357-7q0-29-21-50t-50-22-50 22-22 50 22 50 50 21 50-21 21-50z m500 0q0-29-21-50t-50-22-50 22-22 50 22 50 50 21 50-21 21-50z m72 607v-286q0-13-10-23t-22-12l-583-68q7-34 7-40 0-8-13-35h513q15 0 26-11t10-25-10-25-26-11h-571q-14 0-25 11t-11 25q0 6 5 18t9 20 12 22 8 17l-98 459h-114q-15 0-25 10t-11 25 11 26 25 10h143q9 0 16-3t10-9 8-14 4-14 3-17 3-14h670q14 0 25-11t11-25z" horiz-adv-x="928.6" />

<glyph glyph-name="key" unicode="&#xe80a;" d="M774 612q20-116-28-215t-150-117q-66-12-130-2l-118-194-70-12-104-166q-14-28-46-32l-76-14q-12-4-22 4t-12 22l-16 98q-8 30 12 56l258 386q-24 50-38 120-18 106 53 187t185 101q106 20 195-45t107-177z m-126-76q30 44 21 97t-51 83q-42 32-92 22t-80-54q-8-12-12-23t-1-20 5-16 13-17 18-15 22-16 23-17q6-4 22-16t23-16 19-12 19-8 17 1 18 8 16 19z" horiz-adv-x="780" />

<glyph glyph-name="search-outline" unicode="&#xe80b;" d="M511 580q-65 0-110-46t-46-110 46-111 110-45 111 45 46 111-46 110-111 46z m0 51q87 0 147-60t61-147-61-148-147-61-147 61-61 148 61 147 147 60z m-511-555q0 68 48 115l117 119q-19 54-19 114 0 151 107 257t258 107 258-107 106-257-106-258-258-107q-53 0-113 19l-125-124q-49-42-110-42-68 0-115 49t-48 115z m336 88q-51 34-85 85l-130-131q-17-15-17-42 0-25 17-42t42-18q22 0 42 18z m175-1q108 0 184 76t76 185-76 184-184 76-184-76-77-184 77-185 184-76z" horiz-adv-x="875" />

<glyph glyph-name="search" unicode="&#xe80c;" d="M511 788q152 0 258-107t106-257-106-258-258-107q-53 0-113 19l-122-122q-50-44-113-44-68 0-115 49t-48 115 46 114q53 54 79 80l40 40q-19 60-19 114 0 151 107 257t258 107z m0-625q108 0 184 76t76 185-76 184-184 76-184-76-77-184 77-185 184-76z m0 468q87 0 147-60t61-147-61-148-147-61-147 61-61 148 61 147 147 60z m0-363q65 0 111 45t46 111-46 110-111 46-110-46-46-110 46-111 110-45z" horiz-adv-x="875" />

<glyph glyph-name="user-add-outline" unicode="&#xe80d;" d="M938 273l-313 0q-21 0-37 15t-15 36 15 37 37 15l313 0q21 0 36-15t16-37-16-36-36-15z m-157-157q-21 0-37 15t-15 37l0 312q0 21 15 37t37 16 37-16 16-37l0-312q0-22-16-37t-37-15z m-468 573q-65 0-111-46t-46-110 46-111 111-46 110 46 46 111-46 110-110 46z m0 104q107 0 183-77t77-183-77-184-183-76-184 76-76 184 76 183 184 77z m0-677q-74 0-127-22t-72-54q75-29 199-29t197 29q-21 30-73 53t-124 23z m0 104q136 0 224-63t88-146q0-41-89-72t-223-32q-140 0-227 32t-86 72q0 83 86 146t227 63z" horiz-adv-x="990" />

<glyph glyph-name="user-add" unicode="&#xe80e;" d="M573 533q0-108-77-184t-183-76-184 76-76 184 76 183 184 77 183-77 77-183z m-260-626q-140 0-227 32t-86 72q0 83 86 146t227 63q136 0 224-63t88-146q0-41-89-72t-223-32z m625 469q21 0 36-15t16-37-16-36-36-15l-104 0 0-105q0-22-16-37t-37-15-37 15-15 37l0 105-104 0q-21 0-37 15t-15 36 15 37 37 15l104 0 0 104q0 21 15 37t37 16 37-16 16-37l0-104 104 0z" horiz-adv-x="990" />

<glyph glyph-name="user-1" unicode="&#xe80f;" d="M313 793q107 0 183-77t77-183-77-184-183-76-184 76-76 184 76 183 184 77z m-313-782q0 83 86 146t227 63q136 0 224-63t88-146q0-41-89-72t-223-32q-140 0-227 32t-86 72z" horiz-adv-x="625" />

<glyph glyph-name="user-outline" unicode="&#xe810;" d="M313 689q-65 0-111-46t-46-110 46-111 111-46 110 46 46 111-46 110-110 46z m0 104q107 0 183-77t77-183-77-184-183-76-184 76-76 184 76 183 184 77z m0-677q-74 0-127-22t-72-54q75-29 199-29t197 29q-21 30-73 53t-124 23z m0 104q136 0 224-63t88-146q0-41-89-72t-223-32q-140 0-227 32t-86 72q0 83 86 146t227 63z" horiz-adv-x="625" />

<glyph glyph-name="picture-1" unicode="&#xe811;" d="M209 481q0 130 130 130t130-130-130-130-130 130z m520-79q41 0 77-61 52-93 79-251l-729 0 17 52q17 54 55 105t85 51q53 0 126-38 25-14 56-14 38 0 86 55 58 65 92 85 27 16 56 16z m-729 261q0 43 30 73t74 31l834 0q42 0 73-31t30-73l0-625q0-44-30-74t-73-31l-834 0q-43 0-73 31t-31 74l0 625z m938-625l0 625-834 0 0-625 834 0z" horiz-adv-x="1041" />

<glyph glyph-name="picture-outline" unicode="&#xe812;" d="M339 559q-31 0-55-23t-24-56q0-31 23-54t56-23q31 0 54 22t23 55-23 56-54 23z m0 51q54 0 92-37t38-93-38-92-92-38-92 38-38 92 38 93 92 37z m156-416q-49 0-94 26t-88 27q-40 0-84-105l592 0q-18 85-46 145t-46 63q-34 0-96-70-25-27-41-42t-43-29-54-15z m234 209q46 0 85-78t55-157l16-78-729 0q3 9 7 23t18 49 32 63 43 50 57 23q55 0 101-26t81-25q25 0 54 24t53 54 57 53 70 25z m312 260l0-625q0-43-30-73t-73-31l-834 0q-44 0-74 31t-30 73l0 625q0 42 30 73t74 31l834 0q42 0 73-31t30-73z m-103-625l0 625-834 0 0-625 834 0z" horiz-adv-x="1041" />

<glyph glyph-name="th-list" unicode="&#xe813;" d="M860 90q43 0 73-31t31-74q0-43-31-73t-73-31l-365 0q-44 0-74 31t-31 73 31 74 74 31l365 0z m0 364q43 0 73-31t31-73-31-73-73-31l-365 0q-44 0-74 31t-31 73 31 73 74 31l365 0z m0 365q43 0 73-31t31-73q0-44-31-74t-73-31l-365 0q-42 0-74 31t-31 74 31 73 74 31l365 0z m-860-834q0 130 130 130t130-130-130-130-130 130z m0 365q0 130 130 130t130-130-130-130-130 130z m0 365q0 130 130 130t130-130-130-130-130 130z" horiz-adv-x="964" />

<glyph glyph-name="th-list-outline" unicode="&#xe814;" d="M885 38l-364 0q-21 0-37-16t-15-37 15-36 37-15l364 0q21 0 37 15t16 36-16 37-37 16z m0 104q65 0 111-46t45-111-45-110-111-46l-364 0q-65 0-110 46t-46 110 46 111 110 46l364 0z m0 261l-364 0q-21 0-37-16t-15-37 15-37 37-15l364 0q21 0 37 15t16 37-16 37-37 16z m0 104q65 0 111-46t45-111-45-110-111-46l-364 0q-65 0-110 46t-46 110 46 111 110 46l364 0z m0 260l-364 0q-21 0-37-15t-15-37 15-37 37-15l364 0q21 0 37 15t16 37-16 37-37 15z m0 105q65 0 111-46t45-111-45-110-111-46l-364 0q-65 0-110 46t-46 110 46 111 110 46l364 0z m-676-730q44 0 74-31t30-73l0-104q0-44-31-74t-73-31l-105 0q-43 0-73 31t-31 74l0 104q0 42 30 73t74 31l105 0z m0-208l0 104-105 0 0-104 105 0z m0 573q44 0 74-31t30-73l0-105q0-43-30-73t-74-31l-105 0q-44 0-74 31t-30 73l0 105q0 42 30 73t74 31l105 0z m0-209l0 105-105 0 0-105 105 0z m0 574q42 0 73-31t31-74l0-104q0-43-30-73t-74-31l-105 0q-44 0-74 31t-30 73l0 104q0 43 31 74t73 31l105 0z m0-209l0 104-105 0 0-104 105 0z" horiz-adv-x="1041" />

<glyph glyph-name="plus" unicode="&#xe815;" d="M729 454q44 0 74-31t31-73-31-73-74-30l-208 3 0-212q0-43-30-73t-75-31-73 31-30 73l3 212-212-3q-44 0-74 30t-30 73 30 73 74 31l212 0-3 209q0 42 30 73t73 31 75-31 30-73l0-209 208 0z" horiz-adv-x="834" />

<glyph glyph-name="plus-outline" unicode="&#xe816;" d="M469-119q-65 0-111 46t-45 111l2 159-157-3q-65 0-112 46t-46 110 46 111 110 46l159 2-2 153q0 65 45 111t111 46 110-46 46-110l3-154 155-2q63 0 109-46t46-111-46-110-111-46l-153 3-3-160q0-64-46-110t-110-46z m-53 417l0-261q0-22 16-37t37-15 37 16 15 37l0 260 262 0q21 0 36 15t15 37-16 37-37 16l-260 0 0 260q0 22-15 37t-37 15-37-15-16-37l0-260-260 0q-22 0-37-16t-15-37 15-37 37-15l260 0z" horiz-adv-x="938" />

<glyph glyph-name="trash" unicode="&#xe817;" d="M0 633l0 141 289 0 0 76 246 0 0-76 289 0 0-141-824 0z m43-783l0 676 738 0 0-676-738 0z" horiz-adv-x="824" />

<glyph glyph-name="money" unicode="&#xe818;" d="M3 243q31 97 107 173 59 61 203 145 129 74 178 123 55 55 74 121 6 16 16 27 14 12 29 16 35 8 61-16l312-312q26-27 16-63-31-99-108-173-58-61-203-145-129-74-177-123-55-53-75-121-6-16-15-27-14-12-30-16-35-8-60 16l-313 312q-25 27-15 63z m60-18l99-99 115-115 99-99q25 79 84 140t128 102l138 80t129 101 83 140l-157 157-155 155q-24-78-83-139t-129-102l-139-80t-128-101-84-140z m274-199l21 29q22 27 47 53 22 23 55 49 11 9 21 0 12-12 0-24l-2 0q-31-25-52-47-24-23-43-48l-20-28q-2-2-2-4-12-12-23 0-8 10-2 20z m27 359q2 18 10 33 8 18 19 32 0 2-5 5-4 2-4 7t4 10 8 5 7-4q4-4 8-6 8 8 20 16t28 12 29 1 24-15q8-8 8-18t-8-15q-5-6-15-4-6 2-18 4-9 4-20 3t-23-11q20-20 51-57 14 8 31 14 16 6 32 8t31-3 31-17q14-12 20-25 4-14 2-30 0-15-10-33-8-19-22-37 8-6 16-13 4-2 5-7t-3-9-9-5-9 3q-9 8-15 16-18-18-35-24-16-6-34-6-15 2-28 8t-20 15-8 17 8 16 13 7 13-3 13-8 13-7 17 0 20 12q-21 21-56 62-32-17-65-19-29-2-50 15-14 12-20 26t-4 29z m42 11q-1-7 1-14t8-10q10-10 22-9t33 10q-30 32-49 51-6-8-10-14t-5-14z m112 143q-9 10 0 22 2 2 4 2 32 25 53 47 23 23 43 49l19 27q2 4 4 4 12 12 22 0 10-10 2-22l-22-29q-21-27-47-53-21-23-54-48-12-10-24 1z m4-195q32-35 53-56 6 5 10 13t6 16 0 14-9 14-15 9-15 1-16-5q-4-2-14-6z" horiz-adv-x="1001" />

<glyph glyph-name="key-1" unicode="&#xe819;" d="M0-88l0 94q0 20 18 39l379 379q-22 57-22 114 0 128 92 220t221 92 220-92 92-220-92-221-220-92q-57 0-114 22l-74-73 0-74q0-25-19-44t-43-18l-63 0 0-63q0-25-19-44t-43-19l-73 0-45-44q-17-18-39-18l-93 0q-26 0-44 19t-19 43z m63 0l87 0 45 45q18 18 45 18l73 0 0 63q0 25 18 43t44 19l63 0 0 74q0 26 17 43l61 61 35 35 10 10q60-35 127-35 103 0 176 73t73 177-73 176-176 73-177-73-73-176q0-67 35-127l-45-45-365-364 0-90z m562 713q0 4 2 10 23 65 88 88 15 6 27-4 74-53 127-127 6-8 6-17 0-4-2-10-23-65-88-88-15-6-27 4-74 53-127 127-6 8-6 17z m31 0q51-70 119-119 51 18 69 69-49 68-119 119-51-18-69-69z" horiz-adv-x="1000" />

<glyph glyph-name="trash-1" unicode="&#xe81a;" d="M0 569l0 68q2 37 29 63t65 25l94 0 0 31q0 39 27 67t66 27l313 0q39 0 66-27t28-67l0-31 93 0q37 0 65-25t29-63l0-68q0-26-19-44t-44-19l0-531q0-53-36-89t-88-36l-500 0q-53 0-89 36t-36 89l0 531q-26 0-44 19t-19 44z m63 0l749 0 0 62q0 14-8 23t-23 8l-687 0q-14 0-23-8t-8-23l0-62z m62-594q0-25 19-44t44-19l500 0q25 0 43 19t19 44l0 531-625 0 0-531z m63 31l0 407q0 13 8 22t23 9l62 0q14 0 23-9t9-22l0-407q0-13-9-22t-23-9l-62 0q-14 0-23 9t-8 22z m31 0l62 0 0 407-62 0 0-407z m31 719l375 0 0 31q0 14-9 23t-22 8l-313 0q-13 0-22-8t-9-23l0-31z m125-719l0 407q0 13 9 22t22 9l63 0q13 0 22-9t9-22l0-407q0-13-9-22t-22-9l-63 0q-13 0-22 9t-9 22z m31 0l63 0 0 407-63 0 0-407z m157 0l0 407q0 13 8 22t23 9l62 0q14 0 23-9t9-22l0-407q0-13-9-22t-23-9l-62 0q-14 0-23 9t-8 22z m31 0l62 0 0 407-62 0 0-407z" horiz-adv-x="875" />

<glyph glyph-name="basket-1" unicode="&#xe81b;" d="M950 715q23 0 39-18t14-42l-53-365q-2-18-17-31t-34-12l-590 0 9-53 528 0q22 0 37-16t16-36-16-37-37-15l-572 0q-20 0-35 13t-16 30l-98 582-72 0q-22 0-37 15t-16 37 16 36 37 16l116 0q19 0 34-12t17-32l11-60 719 0z m-60-105l-200 0 0-103 185 0z m-252 0l-157 0 0-103 157 0 0 103z m0-156l-157 0 0-104 157 0 0 104z m-208 156l-182 0 18-105q3 2 8 2l156 0 0 103z m-156-156l17-104 139 0 0 104-156 0z m416-104l164 0 14 104-178 0 0-104z m-416-390q0 78 77 78 79 0 79-78 0-79-79-79-77 0-77 79z m469 0q0 78 77 78 79 0 79-78 0-79-79-79-77 0-77 79z" horiz-adv-x="1003" />

<glyph glyph-name="doc-text" unicode="&#xe81c;" d="M678-119l-522 0q-65 0-110 46t-46 111l0 625q0 65 46 110t110 46l522 0q65 0 110-46t46-110l0-625q0-65-46-111t-110-46z m-522 834q-21 0-37-15t-15-37l0-625q0-21 15-37t37-16l522 0q21 0 36 16t15 37l0 625q0 21-15 37t-36 15l-522 0z m469-312l-416 0q-26 0-26 25 0 11 7 19t19 7l416 0q11 0 19-7t7-19q0-25-26-25z m0 156l-416 0q-11 0-19 8t-7 18q0 25 26 25l416 0q26 0 26-25 0-11-7-18t-19-8z m0-312l-416 0q-11 0-19 7t-7 19q0 25 26 25l416 0q26 0 26-25 0-11-7-19t-19-7z m0-157l-416 0q-26 0-26 25 0 12 7 19t19 8l416 0q11 0 19-8t7-19q0-25-26-25z" horiz-adv-x="834" />

<glyph glyph-name="ok" unicode="&#xe81d;" d="M352-10l-334 333 158 160 176-174 400 401 159-160z" horiz-adv-x="928" />

<glyph glyph-name="cancel" unicode="&#xe81e;" d="M799 116l-156-157-234 235-235-235-156 157 234 234-234 234 156 157 235-235 234 235 156-157-234-234z" horiz-adv-x="817" />

<glyph glyph-name="emo-wink" unicode="&#xe81f;" d="M261 800c-60 0-109-65-109-144 0-80 49-145 109-145s110 65 110 145c0 79-49 144-110 144z m343-98c-29 0-54-24-54-54 0-30 25-54 54-54l267 0c30 0 54 24 54 54 0 30-24 54-54 54l-267 0z m342-501c-13 0-27-5-37-16-4-4-8-8-12-12-111-109-253-164-396-165-142-2-285 50-396 155l-3 3-12 12c-21 21-54 20-75-1-20-21-20-55 1-76 3-4 8-8 14-14l3-3c132-124 301-186 469-184 169 1 337 67 468 195 5 5 9 10 14 14 20 22 20 56-1 77-10 10-23 15-37 15z" horiz-adv-x="999" />

<glyph glyph-name="phone-squared" unicode="&#xf098;" d="M714 184q0 6-1 9t-10 9-22 14-27 15-25 14-16 9q-3 1-11 7t-14 8-11 3q-9 0-21-12t-22-25-21-25-19-11q-4 0-9 2t-9 3-9 6-8 4q-55 31-95 71t-71 95q-1 2-5 8t-5 9-4 9-2 9q0 8 12 19t25 22 25 22 11 20q0 6-2 12t-9 14-7 10q-2 4-8 16t-14 25-15 27-14 23-9 10-9 1q-27 0-56-13-26-11-45-52t-19-73q0-9 1-19t3-17 5-18 6-17 7-18 6-17q33-92 121-179t178-121q4-1 17-6t19-7 16-5 19-5 17-3 19-2q31 0 72 19t53 45q12 30 12 56z m143 434v-536q0-66-47-113t-114-48h-535q-67 0-114 48t-47 113v536q0 66 47 113t114 48h535q67 0 114-48t47-113z" horiz-adv-x="857.1" />

<glyph glyph-name="desktop" unicode="&#xf108;" d="M1000 296v465q0 7-5 12t-13 6h-893q-7 0-12-6t-6-12v-465q0-7 6-12t12-5h893q7 0 13 5t5 12z m71 465v-607q0-37-26-63t-63-27h-303q0-20 9-43t17-40 9-24q0-14-10-25t-25-11h-286q-15 0-25 11t-11 25q0 8 9 25t18 39 9 43h-304q-36 0-63 27t-26 63v607q0 37 26 63t63 26h893q37 0 63-26t26-63z" horiz-adv-x="1071.4" />

<glyph glyph-name="laptop" unicode="&#xf109;" d="M232 136q-37 0-63 26t-26 63v393q0 37 26 63t63 26h607q37 0 63-26t27-63v-393q0-37-27-63t-63-26h-607z m-18 482v-393q0-7 6-13t12-5h607q8 0 13 5t5 13v393q0 7-5 12t-13 6h-607q-7 0-12-6t-6-12z m768-518h89v-54q0-22-26-37t-63-16h-893q-36 0-63 16t-26 37v54h982z m-402-54q9 0 9 9t-9 9h-89q-9 0-9-9t9-9h89z" horiz-adv-x="1071.4" />

<glyph glyph-name="attention-alt" unicode="&#xf12a;" d="M286 154v-125q0-15-11-25t-25-11h-143q-14 0-25 11t-11 25v125q0 14 11 25t25 10h143q15 0 25-10t11-25z m17 589l-16-429q-1-14-12-25t-25-10h-143q-14 0-25 10t-12 25l-15 429q-1 14 10 25t24 11h179q14 0 25-11t10-25z" horiz-adv-x="357.1" />

<glyph glyph-name="lock-open-alt" unicode="&#xf13e;" d="M589 421q23 0 38-15t16-38v-322q0-22-16-37t-38-16h-535q-23 0-38 16t-16 37v322q0 22 16 38t38 15h17v179q0 103 74 177t176 73 177-73 73-177q0-14-10-25t-25-11h-36q-14 0-25 11t-11 25q0 59-42 101t-101 42-101-42-41-101v-179h410z" horiz-adv-x="642.9" />

<glyph glyph-name="pencil-squared" unicode="&#xf14b;" d="M225 232l85-85-29-29h-31v53h-54v32z m232 217q7-7-2-16l-163-163q-9-9-16-1-8 7 1 16l163 163q9 9 17 1z m-153-385l303 304-161 161-303-304v-161h161z m339 340l51 51q16 16 16 38t-16 38l-85 85q-15 15-38 15t-37-15l-52-52z m214 214v-536q0-66-47-113t-114-48h-535q-67 0-114 48t-47 113v536q0 66 47 113t114 48h535q67 0 114-48t47-113z" horiz-adv-x="857.1" />

<glyph glyph-name="user-plus" unicode="&#xf234;" d="M393 350q-89 0-152 63t-62 151 62 152 152 63 151-63 63-152-63-151-151-63z m536-71h196q7 0 13-6t5-12v-107q0-8-5-13t-13-5h-196v-197q0-7-6-12t-12-6h-107q-8 0-13 6t-5 12v197h-197q-7 0-12 5t-6 13v107q0 7 6 12t12 6h197v196q0 7 5 13t13 5h107q7 0 12-5t6-13v-196z m-411-125q0-29 21-51t50-21h143v-133q-38-28-95-28h-488q-67 0-108 39t-41 106q0 30 2 58t8 61 15 60 24 55 34 45 48 30 62 11q11 0 22-10 44-34 86-51t92-17 92 17 86 51q11 10 22 10 73 0 121-54h-125q-29 0-50-21t-21-50v-107z" horiz-adv-x="1142.9" />

<glyph glyph-name="handshake-o" unicode="&#xf2b5;" d="M107 207q23 0 31 18t0 36-31 18-31-18 0-36 31-18z m822 33q-5 7-21 27t-23 31-22 27-23 30-23 26-25 27l-70-78q-46-52-116-51t-115 54q-32 39-31 88t32 88l99 115q-12 6-28 9t-27 4-31-1-28 0q-51 0-88-37l-88-88h-87v-304q3 0 12 0t12 0 11-1 12-2 9-5 11-7l165-163q65-62 127-62 44 0 70 26 32-11 63 4t40 48q41-4 71 24 11 10 20 26t8 28q5-6 24-6 24 0 43 12t28 30 6 40-17 41z m89-33h53v286h-51l-88 100q-37 43-94 43h-94q-49 0-81-38l-117-135q-15-19-15-42t15-42q24-28 61-29t62 27l108 122q14 13 30 12t26-15 5-32q9-10 31-35t33-38q17-20 46-59t36-47q29-37 34-78z m161 0q22 0 31 18t0 36-31 18-32-18 0-36 32-18z m107 322v-358q0-14-11-25t-25-10h-242q-15-37-46-60t-70-28q-18-27-45-46t-57-25q-23-30-58-46t-72-14q-33-19-70-22t-71 8-66 30-57 45l-160 158h-200q-15 0-25 10t-11 25v375q0 15 11 26t25 10h235q8 8 26 27t26 27 25 22 28 21 29 14 34 11 38 3h65q56 0 101-31 46 31 101 31h94q19 0 37-3t32-8 28-15 25-17 24-22 22-24 23-27 23-27h198q15 0 25-10t11-25z" horiz-adv-x="1285.7" />

<glyph glyph-name="id-card" unicode="&#xf2c2;" d="M500 174q0 30-4 56t-14 50-28 38-45 14q-36-36-88-36t-87 36q-26 0-45-14t-28-38-14-50-4-56q0-31 17-52t43-22h237q25 0 42 22t18 52z m-71 247q0 45-32 76t-76 32-75-32-32-76 32-75 75-32 76 32 32 75z m571-267v35q0 8-5 13t-13 5h-393q-7 0-12-5t-6-13v-35q0-8 6-13t12-5h393q8 0 13 5t5 13z m-214 142v36q0 8-5 13t-13 5h-179q-7 0-12-5t-6-13v-36q0-7 6-12t12-5h179q8 0 13 5t5 12z m214 0v36q0 8-5 13t-13 5h-107q-8 0-13-5t-5-13v-36q0-7 5-12t13-5h107q8 0 13 5t5 12z m0 143v36q0 8-5 13t-13 5h-393q-7 0-12-5t-6-13v-36q0-7 6-12t12-6h393q8 0 13 6t5 12z m-929 197h1000v53q0 8-5 13t-12 5h-965q-7 0-12-5t-6-13v-53z m1072 53v-678q0-37-26-63t-63-27h-965q-36 0-63 27t-26 63v678q0 37 26 63t63 27h965q36 0 63-27t26-63z" horiz-adv-x="1142.9" />

<glyph glyph-name="id-card-o" unicode="&#xf2c3;" d="M500 174q0-31-18-52t-42-22h-237q-25 0-43 22t-17 52q0 30 4 56t14 50 28 38 45 14q36-36 87-36t88 36q26 0 45-14t28-38 14-50 4-56z m-71 247q0-44-32-75t-76-32-75 32-32 75 32 76 75 32 76-32 32-76z m571-232v-35q0-8-5-13t-13-5h-393q-7 0-12 5t-6 13v35q0 8 6 13t12 5h393q8 0 13-5t5-13z m-214 143v-36q0-7-5-12t-13-5h-179q-7 0-12 5t-6 12v36q0 8 6 13t12 5h179q8 0 13-5t5-13z m214 0v-36q0-7-5-12t-13-5h-107q-8 0-13 5t-5 12v36q0 8 5 13t13 5h107q8 0 13-5t5-13z m0 143v-36q0-7-5-12t-13-6h-393q-7 0-12 6t-6 12v36q0 8 6 13t12 5h393q8 0 13-5t5-13z m71-464v625h-1000v-625q0-7 6-13t12-5h965q7 0 12 5t5 13z m72 678v-678q0-37-26-63t-63-27h-965q-36 0-63 27t-26 63v678q0 37 26 63t63 27h965q36 0 63-27t26-63z" horiz-adv-x="1142.9" />
</font>
</defs>
</svg>